%YAML 1.1
%TAG !u! tag:unity3d.com,2011:
--- !u!114 &11400000
MonoBehaviour:
  m_ObjectHideFlags: 0
  m_CorrespondingSourceObject: {fileID: 0}
  m_PrefabInstance: {fileID: 0}
  m_PrefabAsset: {fileID: 0}
  m_GameObject: {fileID: 0}
  m_Enabled: 1
  m_EditorHideFlags: 0
  m_Script: {fileID: 11500000, guid: b910ee9629e9e974fa6b3967f6527dbe, type: 3}
  m_Name: RedFaction
  m_EditorClassIdentifier: 
  FactionName: Red
  FactionAlignmentType: 2
  enemies:
  - {fileID: 11400000, guid: b9b2b5a7cbe09b848ba1760784c96ad6, type: 2}
