%YAML 1.1
%TAG !u! tag:unity3d.com,2011:
--- !u!1001 &2065139674787138194
PrefabInstance:
  m_ObjectHideFlags: 0
  serializedVersion: 2
  m_Modification:
    m_TransformParent: {fileID: 0}
    m_Modifications:
    - target: {fileID: 7073696189407556356, guid: 862bbbd2196eea8499053f30a1bf7d84,
        type: 3}
      propertyPath: factionData
      value: 
      objectReference: {fileID: 11400000, guid: 5e05574093c4b2842a25862644d86035,
        type: 2}
    - target: {fileID: 7073696189407556356, guid: 862bbbd2196eea8499053f30a1bf7d84,
        type: 3}
      propertyPath: viewRadius
      value: 20
      objectReference: {fileID: 0}
    - target: {fileID: 7073696189407556356, guid: 862bbbd2196eea8499053f30a1bf7d84,
        type: 3}
      propertyPath: targetMask.m_Bits
      value: 256
      objectReference: {fileID: 0}
    - target: {fileID: 7073696189407556356, guid: 862bbbd2196eea8499053f30a1bf7d84,
        type: 3}
      propertyPath: obstacleMask.m_Bits
      value: 512
      objectReference: {fileID: 0}
    - target: {fileID: 7073696189407556356, guid: 862bbbd2196eea8499053f30a1bf7d84,
        type: 3}
      propertyPath: searchRate
      value: 0.5
      objectReference: {fileID: 0}
    - target: {fileID: 7073696189407556356, guid: 862bbbd2196eea8499053f30a1bf7d84,
        type: 3}
      propertyPath: searchTimer
      value: 0.5
      objectReference: {fileID: 0}
    - target: {fileID: 8405482442814919792, guid: 862bbbd2196eea8499053f30a1bf7d84,
        type: 3}
      propertyPath: m_Name
      value: ProtoSoldier Red
      objectReference: {fileID: 0}
    - target: {fileID: 8405482442814919805, guid: 862bbbd2196eea8499053f30a1bf7d84,
        type: 3}
      propertyPath: m_LocalPosition.x
      value: 0
      objectReference: {fileID: 0}
    - target: {fileID: 8405482442814919805, guid: 862bbbd2196eea8499053f30a1bf7d84,
        type: 3}
      propertyPath: m_LocalPosition.y
      value: 0
      objectReference: {fileID: 0}
    - target: {fileID: 8405482442814919805, guid: 862bbbd2196eea8499053f30a1bf7d84,
        type: 3}
      propertyPath: m_LocalPosition.z
      value: 0
      objectReference: {fileID: 0}
    - target: {fileID: 8405482442814919805, guid: 862bbbd2196eea8499053f30a1bf7d84,
        type: 3}
      propertyPath: m_LocalRotation.x
      value: 0
      objectReference: {fileID: 0}
    - target: {fileID: 8405482442814919805, guid: 862bbbd2196eea8499053f30a1bf7d84,
        type: 3}
      propertyPath: m_LocalRotation.y
      value: 0
      objectReference: {fileID: 0}
    - target: {fileID: 8405482442814919805, guid: 862bbbd2196eea8499053f30a1bf7d84,
        type: 3}
      propertyPath: m_LocalRotation.z
      value: 0
      objectReference: {fileID: 0}
    - target: {fileID: 8405482442814919805, guid: 862bbbd2196eea8499053f30a1bf7d84,
        type: 3}
      propertyPath: m_LocalRotation.w
      value: 1
      objectReference: {fileID: 0}
    - target: {fileID: 8405482442814919805, guid: 862bbbd2196eea8499053f30a1bf7d84,
        type: 3}
      propertyPath: m_RootOrder
      value: 0
      objectReference: {fileID: 0}
    - target: {fileID: 8405482442814919805, guid: 862bbbd2196eea8499053f30a1bf7d84,
        type: 3}
      propertyPath: m_LocalEulerAnglesHint.x
      value: 0
      objectReference: {fileID: 0}
    - target: {fileID: 8405482442814919805, guid: 862bbbd2196eea8499053f30a1bf7d84,
        type: 3}
      propertyPath: m_LocalEulerAnglesHint.y
      value: 0
      objectReference: {fileID: 0}
    - target: {fileID: 8405482442814919805, guid: 862bbbd2196eea8499053f30a1bf7d84,
        type: 3}
      propertyPath: m_LocalEulerAnglesHint.z
      value: 0
      objectReference: {fileID: 0}
    - target: {fileID: 8405482442814919794, guid: 862bbbd2196eea8499053f30a1bf7d84,
        type: 3}
      propertyPath: TargettingComponent
      value: 
      objectReference: {fileID: 9115858094036564374}
    - target: {fileID: 8405482442814919794, guid: 862bbbd2196eea8499053f30a1bf7d84,
        type: 3}
      propertyPath: FactionData
      value: 
      objectReference: {fileID: 11400000, guid: 5e05574093c4b2842a25862644d86035,
        type: 2}
    - target: {fileID: 8405482442814919794, guid: 862bbbd2196eea8499053f30a1bf7d84,
        type: 3}
      propertyPath: CurrentState
      value: 
      objectReference: {fileID: 11400000, guid: bdd287bb511cc4a4a84947d4b525c304,
        type: 2}
    - target: {fileID: 8405482442814919794, guid: 862bbbd2196eea8499053f30a1bf7d84,
        type: 3}
      propertyPath: unitInformation.factionData
      value: 
      objectReference: {fileID: 11400000, guid: 5e05574093c4b2842a25862644d86035,
        type: 2}
    - target: {fileID: 801618640017282068, guid: 862bbbd2196eea8499053f30a1bf7d84,
        type: 3}
      propertyPath: m_Materials.Array.data[0]
      value: 
      objectReference: {fileID: 2100000, guid: b599c004b71afff4d9318c349bbb7d53, type: 2}
    - target: {fileID: 801618640017079888, guid: 862bbbd2196eea8499053f30a1bf7d84,
        type: 3}
      propertyPath: m_Materials.Array.data[0]
      value: 
      objectReference: {fileID: 2100000, guid: b599c004b71afff4d9318c349bbb7d53, type: 2}
    m_RemovedComponents: []
  m_SourcePrefab: {fileID: 100100000, guid: 862bbbd2196eea8499053f30a1bf7d84, type: 3}
--- !u!114 &9115858094036564374 stripped
MonoBehaviour:
  m_CorrespondingSourceObject: {fileID: 7073696189407556356, guid: 862bbbd2196eea8499053f30a1bf7d84,
    type: 3}
  m_PrefabInstance: {fileID: 2065139674787138194}
  m_PrefabAsset: {fileID: 0}
  m_GameObject: {fileID: 0}
  m_Enabled: 1
  m_EditorHideFlags: 0
  m_Script: {fileID: 11500000, guid: fffeff4aa7e15654ebb1fc961b17466e, type: 3}
  m_Name: 
  m_EditorClassIdentifier: 
