%YAML 1.1
%TAG !u! tag:unity3d.com,2011:
--- !u!114 &11400000
MonoBehaviour:
  m_ObjectHideFlags: 0
  m_CorrespondingSourceObject: {fileID: 0}
  m_PrefabInstance: {fileID: 0}
  m_PrefabAsset: {fileID: 0}
  m_GameObject: {fileID: 0}
  m_Enabled: 1
  m_EditorHideFlags: 0
  m_Script: {fileID: 11500000, guid: 6e51eb0817646ce4080c8ec6b8b4028e, type: 3}
  m_Name: FactionServer
  m_EditorClassIdentifier: 
  neutral: {fileID: 11400000, guid: f232ff4c53c6f154bafd373a8d750dd6, type: 2}
  blue: {fileID: 11400000, guid: b9b2b5a7cbe09b848ba1760784c96ad6, type: 2}
  red: {fileID: 11400000, guid: 5e05574093c4b2842a25862644d86035, type: 2}
